<?xml version="1.0" encoding="UTF-8" standalone="no"?>
<svg width="426px" height="163px" viewBox="0 0 426 163" version="1.1" xmlns="http://www.w3.org/2000/svg" xmlns:xlink="http://www.w3.org/1999/xlink">
    <!-- Generator: Sketch 3.8.3 (29802) - http://www.bohemiancoding.com/sketch -->
    <title>willgo_franchising</title>
    <desc>Created with Sketch.</desc>
    <defs></defs>
    <g id="Page-1" stroke="none" stroke-width="1" fill="none" fill-rule="evenodd">
        <g id="willgo_franchising">
            <g id="logo">
                <path d="M388.242,88.179 C388.242,84.394 387.549,80.749 386.166,77.333 C384.78,73.918 382.75,70.871 380.165,68.193 C377.628,65.563 374.72,63.532 371.35,62.102 C368.027,60.718 364.473,59.978 360.828,59.978 C357.09,59.978 353.582,60.67 350.213,62.102 C346.89,63.486 343.936,65.518 341.305,68.193 C338.721,70.825 336.736,73.871 335.351,77.287 C334.012,80.702 333.322,84.348 333.322,88.179 C333.322,91.963 334.012,95.563 335.351,98.979 C336.736,102.348 338.721,105.395 341.305,108.072 C343.936,110.749 346.89,112.779 350.213,114.164 C353.536,115.595 357.09,116.287 360.828,116.287 C364.474,116.287 367.935,115.595 371.259,114.164 C374.582,112.779 377.536,110.749 380.166,108.072 C382.751,105.395 384.781,102.348 386.167,98.932 C387.548,95.517 388.242,91.963 388.242,88.179 L388.242,88.179 L388.242,88.179 Z M295.795,81.809 L308.72,81.809 L309.226,81.809 L309.226,88.086 L309.226,88.179 L309.226,94.549 L308.72,94.549 C308.257,97.594 307.427,100.502 306.227,103.318 C304.196,108.119 301.288,112.363 297.457,116.102 C293.58,119.839 289.242,122.655 284.349,124.64 C279.504,126.624 274.381,127.641 269.074,127.641 C263.627,127.641 258.504,126.624 253.567,124.64 C248.629,122.609 244.335,119.794 240.55,116.102 C236.72,112.363 233.812,108.119 231.828,103.365 C229.843,98.656 228.827,93.579 228.827,88.179 C228.827,82.779 229.843,77.702 231.828,72.993 C233.811,68.193 236.72,63.948 240.55,60.164 C244.381,56.425 248.721,53.609 253.612,51.625 C258.457,49.686 263.626,48.717 269.073,48.717 C274.473,48.717 279.595,49.686 284.443,51.625 C289.288,53.609 293.627,56.425 297.457,60.164 C301.287,63.994 304.195,68.286 306.227,73.04 C306.503,73.686 306.734,74.332 306.965,74.978 L293.304,74.978 C292.012,72.487 290.396,70.225 288.411,68.193 C285.872,65.563 282.966,63.532 279.642,62.102 C276.272,60.671 272.765,59.978 269.073,59.978 C265.38,59.978 261.827,60.67 258.503,62.102 C255.136,63.486 252.181,65.518 249.596,68.193 C246.966,70.825 244.982,73.871 243.597,77.287 C242.258,80.702 241.567,84.348 241.567,88.179 C241.567,91.963 242.258,95.563 243.597,98.979 C244.982,102.348 246.966,105.395 249.596,108.072 C252.181,110.749 255.136,112.779 258.457,114.164 C261.78,115.595 265.334,116.287 269.073,116.287 C272.719,116.287 276.181,115.595 279.504,114.164 C282.827,112.779 285.78,110.749 288.411,108.072 C291.041,105.395 293.025,102.348 294.411,98.932 C294.966,97.501 295.427,96.026 295.795,94.549 L269.073,94.549 L269.073,81.809 L295.795,81.809 L295.795,81.809 Z M400.979,88.179 C400.979,93.533 399.965,98.563 397.979,103.318 C395.949,108.119 393.041,112.363 389.209,116.102 C385.333,119.839 380.995,122.655 376.103,124.64 C371.257,126.624 366.134,127.641 360.827,127.641 C355.382,127.641 350.212,126.624 345.319,124.64 C340.381,122.609 336.042,119.794 332.303,116.102 C328.472,112.363 325.519,108.119 323.533,103.365 C321.595,98.656 320.58,93.579 320.58,88.179 C320.58,82.779 321.596,77.748 323.533,72.993 C325.518,68.193 328.471,63.948 332.303,60.164 C336.135,56.425 340.472,53.609 345.319,51.625 C350.212,49.686 355.335,48.717 360.827,48.717 C366.226,48.717 371.349,49.686 376.196,51.625 C381.042,53.609 385.38,56.425 389.21,60.164 C393.042,63.994 395.949,68.286 397.98,73.04 C399.965,77.841 400.979,82.871 400.979,88.179 L400.979,88.179 L400.979,88.179 Z" id="Shape" fill="#BBD700"></path>
                <path d="M30.646,47.702 L41.169,47.749 L56.677,85.733 C57.415,87.717 58.153,89.701 58.799,91.686 C59.492,93.67 60.092,95.701 60.692,97.687 C61.016,96.164 61.476,94.501 62.077,92.609 C62.631,90.762 63.416,88.593 64.339,86.055 L78.46,47.749 L90.645,47.749 L61.522,125.932 L45.091,84.855 L45.137,84.809 C40.477,72.164 35.722,60.349 30.646,47.702 L30.646,47.702 L30.646,47.702 Z" id="Shape" fill="#231F20"></path>
                <path d="M0,47.749 L12.092,47.749 C18.138,63.902 25.524,81.071 30.323,97.594 C33.923,85.78 33.738,87.487 38.076,75.902 L43.337,90.21 C37.799,106.733 35.445,109.78 29.03,125.933 L0,47.749 L0,47.749 Z" id="Shape" fill="#231F20"></path>
                <text id="I" fill="#231F20" font-family="Helvetica" font-size="105.858" font-weight="normal">
                    <tspan x="89.438" y="122.4639">I</tspan>
                </text>
                <text id="L" fill="#231F20" font-family="Helvetica" font-size="105.858" font-weight="normal">
                    <tspan x="120.3491" y="122.4639">L</tspan>
                </text>
                <g id="Group" transform="translate(169.285600, 19.463900)">
                    <text id="L" fill="#231F20" font-family="Helvetica" font-size="105.858" font-weight="normal">
                        <tspan x="0" y="103">L</tspan>
                    </text>
                    <g transform="translate(48.929000, 103.000000)"></g>
                </g>
                <path d="M214.659,56.749 C208.474,56.61 202.474,51.349 200.859,45.072 C200.258,42.857 199.936,40.503 200.258,38.657 C200.166,34.872 205.289,33.072 205.196,32.704 L205.15,32.334 C204.921,31.226 205.335,28.272 205.889,25.641 C206.396,23.288 207.135,20.796 207.688,19.781 C210.089,15.627 212.951,15.443 215.674,15.258 L215.674,15.258 L215.859,15.258 C218.074,15.119 220.705,15.073 223.289,15.027 L224.535,15.027 L224.535,15.027 C226.889,14.981 228.92,14.75 230.857,14.52 C232.564,14.335 234.226,14.104 236.582,14.058 C237.921,14.012 241.936,12.535 245.027,11.427 C246.596,10.873 248.027,10.366 248.536,10.181 C255.319,8.057 262.888,5.749 270.598,3.903 C278.397,2.057 286.335,0.719 293.858,0.488 C306.457,0.165 319.336,1.55 331.519,5.058 C342.826,8.288 353.581,13.319 363.087,20.38 L363.087,20.426 C363.549,20.75 364.011,21.165 364.427,21.488 C365.395,22.226 365.858,22.595 367.241,22.826 C370.379,23.01 383.44,24.303 393.364,25.64 C398.07,26.241 402.271,27.026 404.948,27.856 C412.702,29.195 422.671,38.609 423.456,46.594 C423.732,47.009 424.009,47.379 424.334,47.84 L424.334,47.794 C429.04,54.995 421.379,58.64 416.809,62.148 C421.242,55.41 422.071,48.348 407.534,39.025 C404.165,36.671 397.103,36.118 392.026,35.425 C382.288,34.086 369.412,32.841 366.549,32.656 L366.226,32.656 C361.933,32.102 360.735,31.134 358.333,29.241 C358.011,28.964 357.642,28.687 357.18,28.318 L357.134,28.318 C348.642,21.994 338.995,17.471 328.795,14.564 C317.535,11.333 305.719,10.041 294.134,10.364 C287.488,10.549 280.15,11.84 272.859,13.548 C265.475,15.302 258.134,17.564 251.535,19.64 C250.336,20.01 249.412,20.332 248.352,20.702 C244.612,22.086 239.813,23.794 236.951,23.933 C235.289,23.979 233.675,24.164 232.013,24.349 C229.935,24.625 227.813,24.856 224.628,24.903 L224.628,24.903 L223.382,24.903 C221.12,24.949 218.812,24.949 216.458,25.133 L216.319,25.133 L216.273,25.133 L216.273,24.948 L216.273,24.717 C216.181,24.994 215.905,26.286 215.582,27.717 C215.258,29.195 214.889,30.163 214.843,30.44 C216.043,35.24 214.243,37.547 211.936,39.44 C211.244,40.039 206.258,40.316 205.982,41.147 C203.813,46.687 214.52,56.656 214.659,56.749 L214.659,56.749 L214.659,56.749 Z M216.274,24.671 L216.274,24.671 L216.32,24.856 C216.367,24.625 216.458,24.349 216.274,24.671 L216.274,24.671 L216.274,24.671 Z M216.274,24.671 L216.274,24.717 L216.274,24.948 L216.32,24.856 L216.274,24.671 L216.274,24.671 Z" id="Shape" fill="#231F20"></path>
                <text id="FRANCHISING" fill="#777777" font-family="Helvetica" font-size="24.7187" font-weight="normal">
                    <tspan x="228.8286" y="161.1289">FRANCHISING</tspan>
                </text>
            </g>
        </g>
    </g>
</svg>